<?xml version="1.0" encoding="utf-8"?>
<!-- Generator: Adobe Illustrator 16.0.0, SVG Export Plug-In . SVG Version: 6.00 Build 0)  -->
<!DOCTYPE svg PUBLIC "-//W3C//DTD SVG 1.1//EN" "http://www.w3.org/Graphics/SVG/1.1/DTD/svg11.dtd">
<svg version="1.1" xmlns="http://www.w3.org/2000/svg" xmlns:xlink="http://www.w3.org/1999/xlink" x="0px" y="0px"
	 width="407.999px" height="330.369px" viewBox="0 0 407.999 330.369" enable-background="new 0 0 407.999 330.369"
	 xml:space="preserve">
<g>
	<g>
		<path fill="#00AEEF" d="M303.005,217.255c-8.97,2.437-18.678,3.195-27.443,6.206c14.89-12.801,14.029-32.503,23.982-47.535
			c3.154-4.239,5.755-8.725,9.441-12.738c-6.042,12.104-3.44,27.832-10.363,39.547c-2.662,4.69-6.492,9.195-10.711,12.882
			c1.393-0.041,2.561-1.27,3.769-2.027c11.305-11.265,26.03-14.397,38.175-23.531c4.915-3.912,9.359-8.991,11.51-14.479
			C339.07,194.194,320.516,211.664,303.005,217.255z"/>
		<path fill="#00AEEF" d="M343.638,141.725c-5.509,7.823-12.165,15.155-17.265,23.102c0.553-6.267,1.27-14.05-1.146-20.03
			c-4.26-12.882-7.988-25.948-9.196-40.08l0.123-5.407c3.216,14.418,17.388,24.392,16.466,40.551
			c0.349,3.932-0.84,7.229-1.576,10.711l0.225,0.246l0.655-0.737c2.089-7.926,3.175-16.282,6.431-23.654
			c4.649-10.69,10.445-21.463,8.069-34.325C353.488,107.277,351.358,127.552,343.638,141.725z"/>
		<path fill="#00AEEF" d="M334.934,59.988c9.298,12.595,11.325,32.666,4.547,47.104c-2.54,6.144-4.301,12.656-5.284,19.374
			c-0.491-1.106-0.614-2.683-1.004-4.014c-3.666-14.131-17.101-24.208-22.609-37.54c-1.741-4.342-3.175-8.868-4.015-13.599
			c5.878,10.855,20.357,16.466,24.29,28.447c1.617,3.092,1.556,6.82,2.56,10.097c0.164,0,0.389-0.164,0.389-0.349
			c-1.72-12.37-1.188-25.251,0.431-37.479c-0.041-6.594-0.696-13.025-4.383-18.104C332.21,55.298,333.274,57.94,334.934,59.988z"/>
		<path fill="#00AEEF" d="M328.339,57.572c2.499,11.039-1.085,21.811,1.188,32.932l-0.143,0.062
			c-6.021-11.817-18.76-17.347-27.525-26.808c-5.079-5.612-7.25-12.473-8.562-19.682c5.08,12.124,18.597,14.787,26.399,24.965
			c2.621,2.375,3.481,5.652,5.141,8.315l0.226-0.267c-4.444-9.543-5.98-20.316-9.032-30.515c-1.577-4.403-4.689-8.766-8.807-11.53
			C317.383,37.112,326.25,47.803,328.339,57.572z"/>
		<path fill="#00AEEF" d="M301.039,32.238c7.68,6.881,11.182,15.852,13.455,25.047l1.25,2.949
			c-11.224-8.048-21.279-18.862-28.488-30.229l-8.684-8.827C286.252,24.415,294.465,26.38,301.039,32.238z"/>
		<path fill="#00AEEF" d="M124.604,22.653c-7.742,6.758-13.107,15.319-18.821,23.306c-5.121,6.369-11.716,10.567-17.532,15.995
			c3.154-6.513,3.236-14.254,7.722-20.234C102.32,30.62,114.076,26.749,124.604,22.653z"/>
		<path fill="#00AEEF" d="M82.353,46.205c3.768-4.649,8.561-7.946,13.885-9.277c-10.403,7.147-9.728,19.948-13.046,30.618
			c-1.023,3.932-2.847,7.578-3.768,11.571l0.266,0.266c1.782-4.587,4.772-8.888,8.561-12.636
			c7.435-6.82,18.311-11.101,21.977-21.136c-0.185,13.988-11.88,25.047-23.103,32.891c-4.608,4.055-9.052,8.663-11.571,13.906
			c-0.287-3.543,0.553-7.106,0.287-10.896C74.61,69.245,73.71,55.298,82.353,46.205z"/>
		<path fill="#00AEEF" d="M61.299,88.066c-0.308-12.37,4.833-22.548,12.062-31.765c0.246-0.103,0.39-0.328,0.676-0.266
			c-7.967,12.145-1.393,27.402-1.741,41.227l-1.044,14.111c0.144,0.123,0.144,0.512,0.491,0.348
			c0.533-1.536,0.615-3.235,0.901-4.833c1.904-11.428,11.797-19.497,20.419-27.382c1.863-2.027,3.481-4.157,4.465-6.574
			c-0.676,5.714-2.499,11.387-4.875,16.671c-6.717,13.107-19.169,23.9-21.401,38.892C70.105,114.097,60.295,103.345,61.299,88.066z"
			/>
		<path fill="#00AEEF" d="M55.277,105.741c0.86-3.912,1.577-7.905,3.257-11.469c-3.216,16.384,7.823,28.181,11.469,42.455
			c1.516,5.264,1.863,11.018,4.034,15.995c0.205,0.102,0.369-0.123,0.512-0.266c-5.386-15.135,2.355-29.185,10.199-40.96
			c1.905-3.236,2.97-6.779,3.933-10.465c0.799,6.82-0.881,14.705-1.885,21.791c-1.904,9.052-4.751,17.613-7.229,26.378
			c-1.598,5.468-1.147,11.694-0.349,17.387l-0.799-0.614c-5.714-10.567-17.039-18.842-20.398-30.393
			C55.216,126.426,53.394,115.735,55.277,105.741z"/>
		<path fill="#00AEEF" d="M54.786,137.73c1.208,17.408,19.906,26.583,28.61,40.98c2.007,2.949,3.81,6.227,6.554,8.664
			c-0.471-1.823-2.15-3.421-2.826-5.305c-2.99-6.062-4.116-13.23-3.379-20.521c0.84-8.889,4.587-17.163,3.153-26.46
			c7.64,16.404,5.284,36.926,9.564,54.682c1.106,3.912,3.358,7.373,4.812,11.101c-15.646-10.691-36.966-20.809-43.909-40.346
			C54.438,153.828,54.131,145.452,54.786,137.73z"/>
		<path fill="#00AEEF" d="M64.125,177.688c8.745,19.723,30.516,21.36,45.2,33.383c2.662,2.355,5.509,4.362,8.54,5.816l0.144-0.164
			c-3.359-3.052-7.25-6.513-9.605-10.465c-8.541-11.899-5.55-28.57-11.94-41.432c5.775,6.983,11.101,14.233,14.644,22.18
			c5.243,12.923,7.25,27.505,19.354,37.314c-13.107-4.32-28.489-3.133-40.06-11.203C77.765,205.336,66.46,192.146,64.125,177.688z"
			/>
		<path fill="#00AEEF" d="M86.51,214.469c13.968,15.914,36.844,10.589,55.481,14.767c2.621,0.349,5.038,1.413,7.823,0.983
			c-2.171-1.393-5.325-1.27-7.701-2.519c-14.622-5.12-16.813-20.952-24.719-31.602c10.097,6.738,18.657,15.812,27.976,24.577
			c6.718,5.856,14.807,8.601,23.347,10.342c-2.067,0.717-4.73,0.512-6.942,1.105c-15.278,3.748-32.317,9.913-48.518,4.404
			C102.71,233.209,91.834,224.854,86.51,214.469z"/>
		<path fill="#00AEEF" d="M276.34,251.519c-15.811,5.897-32.194-0.226-44.482-9.585c-5.018-3.133-9.441-7.721-15.893-7.312
			c-2.273-0.02-4.547,0.062-6.554,0.637c11.96,5.59,23.061,13.25,33.26,23.06c-1.762,1.925-3.953,3.789-6.083,5.469
			c-9.748-10.568-20.623-20.706-32.788-26.624c-2.335,0.307-4.567,1.74-6.759,2.867c-9.871,6.267-19.62,14.295-26.951,24.104
			l-6.35-5.181c10.117-10.18,21.259-18.105,33.444-23.819c-11.98-3.747-19.804,6.247-28.877,11.367
			c-10.629,7.393-25.866,10.854-38.666,5.774c-6.882-2.601-13.599-6.451-18.535-12.718c10.056,6.943,25.109,7.66,36.558,3.195
			c15.38-6.718,31.375-15.155,49.869-11.101c2.929,0.062,5.714,2.949,8.458,0.471c13.742-3.584,29.327-1.105,41.227,5.202
			l12.227,4.854c11.366,4.219,26.071,3.051,35.778-3.871C290.205,244.575,283.385,249.02,276.34,251.519z"/>
		<path fill="#00AEEF" d="M293.195,235.258c-17.695,6.676-35.472-1.496-52.43-4.24l-3.276-0.43v-0.104
			c8.11-1.822,15.975-4.26,22.467-10.055c9.482-9.176,17.92-18.576,28.487-25.765c-7.823,10.015-8.662,24.331-21.565,30.762
			c-3.215,2.109-7.271,2.457-10.547,4.034c4.71,0.123,8.991-1.577,13.681-2.008c17.306-2.743,37.212,0.062,49.296-14.724
			C314.802,223.051,303.518,231.652,293.195,235.258z"/>
		<path fill="#00AEEF" d="M325.328,185.49c-6.922,4.567-14.069,8.807-20.808,13.988v-0.594
			c10.322-17.122,5.325-40.633,11.633-59.373l2.335-6.328c-1.25,11.694,3.829,21.627,3.461,33.403
			c-0.389,7.106-2.703,13.374-6.451,19.026h0.655c5.059-6.615,8.991-13.599,14.89-19.948c9.133-8.786,18.452-17.838,19.66-30.085
			C353.755,155.999,342.327,173.919,325.328,185.49z"/>
		<path fill="#00AEEF" d="M297.394,72.297c-17.265-36.618-55.051-59.904-94.659-59.966c-17.326,0.307-33.26,4.178-47.8,11.346
			c-25.866,12.349-47.063,39.199-54.089,65.761c-11.633,44.729,4.138,90.03,42.518,116.348
			c27.586,19.824,71.598,23.613,102.604,8.396c27.505-11.53,51.139-39.956,58.327-68.035
			C311.422,122.371,308.269,93.351,297.394,72.297 M302.268,109.386c0.328,1.782-0.143,3.932,0.86,5.386l-15.155,0.287
			c-0.328,0.266-0.737,0.491-1.229,0.491l0.45-0.655c-0.307-11.858-3.44-22.487-8.028-32.604c-0.123-4.505-4.525-7.578-6.349-11.51
			c-3.379-2.314-4.424-6.39-8.213-8.438c-0.716-0.799-1.064-2.11-2.15-2.355l1.803-0.389c3.604-3.728,7.496-7.352,10.384-11.244
			C290.369,66.009,300.322,85.998,302.268,109.386 M259.525,166.198c-1.27-1.229-1.33-3.728-3.666-3.646
			c-0.736-0.123-1.064,0.635-1.064,1.249c-0.021,0.389,0.062,0.799-0.164,1.024l-4.771-4.199c2.273-1.126,3.932-4.199,5.652-6.41
			c4.444-6.144,6.983-12.984,9.195-20.05c0.758,0.574,1.68,0.656,2.417,0.164c0.655-0.594,0.86-1.659,0.349-2.417l-1.741-1.864
			c0.205-3.174,1.085-6.267,0.737-9.441l1.188,0.328c4.875-0.041,9.852,0.287,14.582-0.205l-0.696,0.839
			c-1.229,18.944-7.864,36.066-21.115,50.053C261.041,169.762,259.26,168.185,259.525,166.198 M247.218,181.354
			c-2.725-2.561,1.679-4.67,2.519-6.943c-0.491-2.498-3.175-3.829-5.325-4.525c-0.962-0.574-0.676-1.823-0.716-2.684
			c0.921-0.941,1.904-1.741,2.354-2.99l0.368,1.003l6.452,6.697c0,1.516,0.267,2.765,1.761,3.481
			c0.737,0.349,1.516-0.308,2.171-0.103h-0.368c-2.848,3.052-6.186,5.387-9.4,7.824l-0.717,1.003
			C245.968,183.073,248.118,182.582,247.218,181.354 M217.849,99.925c-0.839,0.327-1.74,0.921-2.683,0.471
			c-0.9-0.922-1.986-2.191-3.502-2.375c-0.983,0.287-1.7,1.556-2.908,0.88c1.925-2.089,5.283-2.396,6.697-5.263
			c0.43-1.373,0.777-2.786,0.594-4.199c-0.492-0.635-1.311-1.208-2.008-0.635c-1.003,1.72-3.42,2.089-4.587,3.953l-3.707-1.27
			c-0.635-3.481,0.246-7.864-0.737-10.875c1.986,0.717,4.178,0.778,6.267,1.27c5.387,1.331,10.24,3.891,14.972,6.84
			c-1.065,0.348-2.254,1.659-3.134,2.499c-0.062,0.962,0.983,0.675,1.413,1.27l1.004-0.389
			C223.911,96.197,218.443,95.562,217.849,99.925 M222.252,143.424c-0.103,1.905-2.785,1.843-4.055,3.133
			c-0.717-0.226-0.082-0.983,0-1.393C219.467,144.141,220.43,143.158,222.252,143.424 M252.01,93.084
			c1.7,0.349,2.785,2.458,4.465,2.785c1.617,2.438,2.171,5.223,2.97,7.967c-1.394,1.536-1.536,5.079-4.588,4.485
			c-0.696-1.659,1.352-2.642,0.922-4.239c0.553-0.41,1.393-0.635,1.515-1.393c-0.102-1.598-2.109-1.291-2.437-2.929
			c-0.595-0.86-1.68-0.758-2.499-1.085c-1.966-0.963-3.891,4.035-4.403,0.102c0.636-0.532,1.004-1.331,0.513-2.007
			c-1.7-0.942-1.863-3.358-3.769-4.28c-2.56,0.021-4.936-1.106-7.455-0.553c-1.658-0.349-3.543-1.434-4.771,0.266
			c-0.123,1.331-0.819,2.437-1.003,3.666c-0.594-0.307-1.147-0.88-1.476-1.515c4.67-5.141,9.954-10.322,14.808-15.36l0.266-0.635
			c2.396,2.97,5.284,5.959,7.066,9.318C252.501,89.726,248.609,91.794,252.01,93.084 M261.185,120.937
			c-0.88,2.847-0.799,6.103-1.495,8.97c-0.205,0.492-0.205,1.065-0.512,1.536c-0.881-1.782-1.658-4.137-3.666-5.202
			c-1.721-0.942-0.655-3.297-2.253-4.424l-1.638-1.597C254.447,121.408,258.051,121.122,261.185,120.937 M239.292,76.331
			c-2.807,3.175-6.37,6.021-8.705,9.339l-0.368-1.147c-6.881-5.611-14.868-8.376-23.593-9.585l-1.372,0.287l0.082-14.254
			l-0.472-1.147c5.755,0.901,11.571,1.68,16.876,3.563c6.84,2.396,13.107,6.104,18.944,10.957l1.229,0.512L239.292,76.331
			 M224.873,154.115c4.649,0.451,8.991,1.454,13.189,3.011c1.024,0,2.15-0.082,2.847-0.881c-0.225-1.741,1.844-2.54,1.659-4.239
			c0.881-1.516,0.226-3.522,1.475-4.813c0.185-1.823-0.062-3.871-1.249-5.304c-1.147-0.717-2.192,0.246-3.298,0.369
			c-1.249,0.922-0.778,3.748-3.011,3.133c-0.512,0.758-1.474,0.758-2.252,0.553c-0.185-0.267-0.533-0.308-0.369-0.614
			c1.495-0.84,4.301-0.287,4.547-2.785c1.146-1.004,2.949-0.594,4.014-1.782c0.799-1.25,1.147-2.355,2.273-3.543
			c0.103-0.492,0.308-1.065,0.286-1.639c0.287,0.737,0.287,1.741,1.209,2.15c1.27,0.39,1.761-0.614,2.273-1.413
			c-0.041-0.41,0.307-1.024,0.758-0.594c1.331,1.024,3.133,0.144,4.669,0.246c1.29-0.41,2.744-0.676,4.157-0.696
			c-1.249,5.734-4.219,11.101-7.659,16.179c-1.352,1.639-2.498,3.359-3.974,4.936c-0.45-1.208-0.409-2.846-1.434-3.932l-0.654,0.144
			c-0.84,1.679-2.54,3.112-2.314,5.038c-1.25,1.986-4.424,0.328-6.268,1.392c-2.273,0.676-3.502-1.536-5.283-1.986
			c-2.008-0.901-4.321-0.922-6.206-1.905C224.178,154.668,224.484,154.278,224.873,154.115 M215.084,18.741
			c21.013,2.888,39.834,11.264,55.727,26.358l-1.803,0.778c-2.888,3.072-6.267,5.591-7.946,9.175
			c-0.184-1.004-1.658-1.68-2.15-2.663c-0.307-2.867-3.092-5.591-5.55-7.065c-2.068-0.389-2.519-3.502-5.038-2.499
			c-2.13-1.802-4.751-0.492-6.8,0.512v0.246c-9.953-5.673-21.094-9.195-33.156-10.096c-0.533,0-0.84,0.471-1.496,0.389
			c0.656-0.409,0.308-1.7,0.267-2.396c-0.349-0.533-0.922-1.188-1.7-0.778c-0.225,0.389-0.43,0.799-0.43,1.291
			c0.308-4.69,0.43-10.363-0.144-14.5C208.019,18.496,211.726,18.188,215.084,18.741 M211.029,39.815
			c9.175,1.085,17.346,3.604,25.456,7.271c1.25,1.863,3.604,2.744,3.892,5.059c-1.188,3.215,4.239,3.154,1.803,6.41
			c-0.164,1.044,0.736,1.638,1.085,2.417c0.308,0.901-0.164,2.253,0.881,2.786c1.904,0.409,2.703-2.11,4.628-1.413
			c2.417,1.802,2.93,4.73,2.93,7.455c0.348,1.72,1.822,2.888,3.317,3.522c3.112-0.921,1.699,2.499,3.769,3.44
			c2.437,0.287,3.665,3.379,6.328,3.113c2.355,1.782,3.707,4.403,5.754,6.39c-0.02,0.533,0.226,0.901,0.656,1.106
			c1.29,0.287,2.068-0.573,3.113-0.655c4.096,8.274,6.062,17.47,6.901,27.197l0.471,0.983c-5.099-0.021-10.26,0.041-15.421,0.369
			c-0.164-3.011,0.041-6.144-1.618-8.541c0.84-1.618,0.963-3.666,0.84-5.406c-0.267-0.819-0.963-0.103-1.311,0
			c-1.7,1.618-1.926,3.871-2.806,5.775c-1.393,2.027-1.598,5.12-0.779,7.455l0.615,0.614l-5.857-0.102
			c1.413-0.881-1.209-2.622,0.184-4.035l2.704-0.512c0.84-1.986,2.929-3.379,2.888-5.693c1.126-1.393,2.212-3.297,1.352-5.141
			c-1.27-2.908,2.171-5.796-0.45-8.561c0.225-0.819-0.328-1.966-1.291-1.905c-0.839-0.246-1.802,0-1.802-1.147
			c0.512-0.696,1.721-1.475,1.454-2.642c-0.614-0.758-1.618-0.082-2.417-0.123c-0.205-1.27,2.13-2.642,0.103-3.789
			c-1.413-0.246-2.232,1.516-3.604,0.881c-0.635-0.512-1.085-1.413-0.533-2.15l-3.174-3.912c-0.307-0.348-1.188,0.267-1.229-0.512
			c0.184-3.113-3.563-4.833-3.81-7.885c-1.167-1.065-0.205-3.031-1.72-3.912c-0.84-0.635-1.762-1.372-2.949-0.901
			c-1.291-1.905-2.848-3.748-4.588-5.386c-0.553-0.164-0.942,0.123-1.208,0.451c0.266,1.475,2.007,2.293,1.904,3.932
			c-0.246-0.041-0.431,0-0.655,0.226c0.266,1.515,1.454,2.724,2.458,3.768c-8.254-6.329-17.941-9.625-28.263-11.326
			c-2.007-0.062-4.035-0.942-6.021-0.225c0.43-4.567,0.164-9.749,0.246-14.664l-0.554-0.963
			C206.667,39.979,208.756,39.488,211.029,39.815 M202.202,100.313l0.881,0.451c-1.086,0.082-2.355-0.615-3.276,0.164
			c-0.636,0.471-0.185,1.311,0,1.925c1.884,0.696,2.293,3.81,4.833,2.581c1.023,0.246,2.354,0.471,2.683,1.659
			c1.576,0.553,1.781,3.256,3.83,2.642c-0.123,1.024-0.472,2.765,0.758,3.522c-0.308,0.922-1.454,1.291-1.373,2.417
			c-0.286,0.328-0.573,0.86-0.245,1.27c1.945,0.226,1.822,2.417,2.744,3.666c-0.471,1.516,0.144,3.093,1.413,3.912
			c-0.205,1.761-1.023,3.318-1.822,4.875c-2.008,1.003-5.366-1.495-6.104,2.129c-1.188,1.291-0.164,4.055-2.417,4.199
			c-4.3,0.287-8.314-0.635-11.591-3.195c2.13-1.085,5.796,0.43,6.553-2.744c0.595-0.471,0.759-1.352,0.554-2.028
			c0.962-1.003,1.311-2.294,1.843-3.502c-0.778-0.778-0.43-1.208-0.267-2.13c-2.13-2.232-5.059-1.065-7.823-1.003
			c-1.617,0.921-0.04,2.724-1.146,3.85c-2.089,0.287-2.13,2.334-3.604,3.522c-0.84-0.389-1.495-1.516-1.454-2.335h0.267
			c-0.103,0.41,0.204,0.758,0.553,0.881c2.007,0.328,1.372-1.945,2.007-2.949c0.307-1.27,3.235-2.969,0.881-3.871
			c-0.123-0.553,0.308-1.208-0.39-1.536c-0.737,0.328-1.966,0.328-2.048,1.413c0.349,0.962,0,1.884-0.799,2.54h-0.471
			c0.164-0.655-0.246-1.065-0.737-1.29c-1.188,0.062-2.191,0.942-3.379,0.635c-1.68,0.389-3.584,0.717-5.325,0.737
			c-0.205-1.003,1.393-0.676,1.7-1.597c-0.287-1.598,0.758-2.54,1.454-3.687c0.389-0.41,1.229-0.266,1.699-0.103
			c0.431,0.41,0.84,0.778,1.454,0.614l0.513-0.901c1.576,0.962,0.696,5.488,3.809,3.563c0.431-1.966,0.021-4.28,0.901-6.062
			c-0.737-1.679,1.044-2.376,1.618-3.523c1.639,0.144,1.454-1.7,2.15-2.539c2.457-0.737,5.1-1.311,6.677-3.953
			c-0.636-1.29-0.246-3.174-1.291-4.219C199.581,99.925,201.362,99.392,202.202,100.313 M199.807,197.717l-1.495-1.004
			c-19.518-1.044-36.229-9.031-50.812-21.79c2.355-0.267,3.235,2.888,5.816,2.109c2.847-0.349,5.059-2.581,8.028-2.109
			c1.495,0.021,3.338,0,4.239-1.413c0.43-1.598-1.208-2.376-1.536-3.625c9.892,7.413,21.074,12.083,33.874,12.697l1.249-0.512
			v13.845L199.807,197.717 M144.776,121.981l-0.778-1.249c1.536,1.146,3.194,0.778,5.038,0.45c-2.581,0.86-1.618,4.014-2.663,5.98
			c-0.184,0.921,1.291,1.167,1.127,2.15c-1.311,0.594-1.434,1.966-2.007,2.949C146.189,128.76,144.878,125.463,144.776,121.981
			 M128.843,140.106c-1.434,0.164-1.045,1.72-1.618,2.519c0.123-3.646-1.536-7.271-2.007-10.937l-1.147-9.708l-0.655-0.86
			c4.629,0.676,9.749,0.225,14.644,0.348l1.126-0.533c-0.409,2.334-0.512,5.673,1.147,7.721c-0.553-0.635-1.413-2.458-2.744-2.417
			c-2.684,0.185-2.929,3.666-5.591,3.81c-2.233,1.823-2.54,4.403-2.97,6.902C129.969,137.956,128.27,138.98,128.843,140.106
			 M139.554,115.817l-1.393-0.553l-14.356,0.287c1.331-16.077,5.734-30.843,15.032-43.582l5.652-7.209l0.123-1.003
			c3.358,3.953,7.086,7.598,11.101,11.1c-10.343,11.121-15.606,24.453-16.794,39.404
			C139.145,114.772,138.939,115.428,139.554,115.817 M199.171,54.561c-2.744-0.594-5.529,0.389-8.294,0.635
			c-11.735,2.416-22.569,7.373-31.499,15.974l-0.389-0.983c-3.522-3.277-6.718-7.373-10.588-9.872
			c3.379-1.966,6.308-4.915,9.625-7.168c12.145-8.212,25.785-12.821,41.042-13.701C198.516,44.403,198.967,49.543,199.171,54.561
			 M175.619,133.798c0.103,0.533,0.676,1.024,1.27,0.656c0.594-0.819-1.27-2.191,0.103-2.663c0.86,0.983,0.43,2.54,0.963,3.625
			c0.389,0.594,0.532,1.311,0.43,2.069c-1.434,1.72-3.461,3.276-4.444,5.14c-0.962-2.355-3.031-4.219-3.973-6.656
			c-1.495-2.744-2.294-5.877-3.769-8.561c1.229,1.557,4.629-0.225,4.629,2.765c0.184,0.184,0.512,0.123,0.736,0.123
			c0.451-0.471,0.533-0.512,1.024-0.246c0.287,0.491,1.516,0.758,0.553,1.393C173.489,132.529,174.411,133.594,175.619,133.798
			 M191.225,174.759l2.499,1.167c-9.094-2.232-18.903-5.386-26.788-11.96c-1.352-0.778-2.253-2.581-3.892-2.703
			c3.666-3.011,7.353-6.943,10.445-10.691c1.372,2.519,4.301,3.871,6.595,5.55c3.952,1.844,8.089,5.223,12.759,4.24
			c-1.495,0.553-2.826,1.331-3.952,2.601c-0.635,1.413-0.451,3.501-2.294,4.116C186.679,170.09,189.361,172.608,191.225,174.759
			 M157.761,156.245l-0.573-3.256c-2.97-2.703-2.028-7.312-2.52-10.731c-2.068-1.659-0.45-4.403-1.823-6.288
			c0-3.051-4.792-4.096-3.338-7.475c-0.532-0.798-1.27-1.925-0.594-2.99c0.942-1.126,3.011,0.144,3.625-1.515l0.43-2.806
			c1.086-0.573,2.643,0.799,3.277-0.696c1.003-2.642-3.912-5.837,0.307-7.229c1.475-0.123,3.4-0.471,3.933,1.291
			c0.327,1.986,0.86,4.137,0.123,6.185c1.393,0.512,0.164,1.72,0.164,2.601c-0.922,0.389-1.68,1.208-2.663,0.922
			c-0.43-0.655-1.167-1.884-2.171-1.802c-0.778,1.147,0.328,2.252,0.205,3.543c-0.308,0.717-0.082,1.557-0.532,2.109
			c-0.41-0.205-0.758-0.369-1.291-0.348c-0.88,0.471-0.327,1.413-0.102,2.028c0.941,0.573,1.617,1.433,2.724,1.495l0.553-0.635
			c-0.164-1.679,0.655-2.949,0.696-4.649l1.536,0.758c1.413,6.513,4.362,12.452,8.09,18.043l2.007,1.986
			c-4.771,4.158-9.441,9.073-13.496,13.742v0.103c-0.062-0.205-0.185-1.044-0.86-0.717
			C155.057,157.924,158.375,158.477,157.761,156.245 M165.052,94.087c-1.475,0.84-2.643,2.355-3.523,3.687
			c-1.27,0.778-2.928,0.758-3.952,2.151c0,0.573,0.676,1.311-0.082,1.74c-1.229,1.188-3.748-0.307-4.321,1.884
			c-0.205,1.966-2.519,3.031-2.314,5.202c-1.352,0.86-1.085,2.499-0.941,3.768c0.696,0.881-0.328,2.376,0.941,3.031
			c-2.109-0.287-4.792-0.614-6.636,0.266c1.004-2.355,0.697-5.304,1.271-7.844c1.966-10.875,6.901-20.418,14.11-29.102
			c3.625,3.563,7.517,7.721,11.612,10.854C168.246,89.807,168.164,94.21,165.052,94.087 M197.41,150.715
			c-0.676,1.229-0.103,2.99-0.512,4.424c-6.964-1.229-13.312-4.116-18.903-8.765c3.153-3.379,7.475-6.718,9.728-10.404
			c0.328,1.68,2.294,2.458,3.646,3.236c2.826,1.25,6.246,3.195,9.421,1.864c-0.307,0.184-0.512,0.491-0.737,0.655
			c0.881,0.901-0.655,1.843,0.41,2.662c0.163,0.717-0.677,0.614-0.758,1.126c0.491,0.942-0.123,2.601,1.331,2.97
			c0.389,0.491,0,1.311-0.573,1.331C199.396,149.63,197.963,149.548,197.41,150.715 M180.514,134.986
			c0.963-0.983,1.885-2.089,2.171-3.461l1.762,0.922c-1.639,0.082-2.479,1.72-3.789,2.642L180.514,134.986 M195.178,92.204
			c-0.308-0.717,0.553-1.516-0.267-1.987c-2.396,1.085-1.536,3.789-3.153,5.509c-0.267,1.372-2.049,0.717-2.867,1.413
			c-0.635-0.983-1.905-0.942-2.807-0.369c-1.229,0-1.454-2.56-2.765-1.229c-0.389,0.43-0.185,1.372-1.167,0.962
			c-0.185-0.348-0.573-0.389-0.881-0.635c0-0.778,1.352-0.696,0.881-1.597c-0.963-1.679-3.011-1.413-4.198-2.683h-1.229
			c6.205-6.574,13.987-9.462,22.445-10.526c-0.103,3.768-0.409,8.007,0.799,11.428C198.618,90.852,196.837,92.9,195.178,92.204
			 M199.314,75.226c-2.744-0.614-5.325,0.594-7.946,0.839c-5.857,1.495-10.998,4.751-15.954,8.315
			c-0.266,0.43-0.553,0.799-0.84,1.147c-3.625-3.174-7.168-7.639-11.182-10.404c10.138-8.376,21.688-13.927,35.021-14.889
			l0.901-0.553C198.762,64.801,198.762,70.269,199.314,75.226 M142.441,38.013c16.65-11.96,35.41-19.128,56.525-20.009l-0.451,1.495
			l0.144,12.616l0.512,1.208c-20.479,0.983-38.359,8.643-53.678,22.63l-0.267,0.676c-3.481-3.748-7.455-8.089-11.592-11.141h-0.471
			C136.399,43.583,139.226,40.225,142.441,38.013 M103.386,106.089c2.683-21.709,11.898-40.694,26.891-57.365l0.348,1.413
			c3.604,3.522,7.147,7.271,10.548,10.486c-2.929,1.946-4.649,5.325-6.984,8.008c-9.441,13.353-14.766,28.283-15.79,45.015
			l0.369,2.028c-5.264-0.41-10.978-0.41-16.241,0C103.181,112.499,102.792,109.222,103.386,106.089 M115.53,167.447
			c-7.557-14.008-12.083-29.266-12.902-46.101l14.623,0.123l1.372-0.533c-0.164,0.778-0.082,1.782-0.103,2.949l-0.123-0.164
			c-0.389,0.307,0.349,0.471,0.226,0.799c0.287,5.55,1.311,10.834,2.539,15.975l0.737,1.126c-1.105-1.004-1.475-2.191-2.354-3.215
			c-1.188,0.184-2.499,0.45-3.38,1.249c0.533,1.516-0.941,1.024-1.638,1.434c-0.226-0.328-0.636-0.758-1.065-0.983
			c-1.126,0.082-2.232,0.164-2.765,1.25c0.185,0.798-0.696,1.188-1.024,1.802c-0.307,2.355-1.105,5.468,0.655,7.414
			c0.041,1.72,0.901,3.338,2.171,4.403c0.492,0.102,0.758-0.307,1.086-0.471c1.454,1.065,2.191,3.625,4.28,3.134
			c0.655-0.308,0.45-0.942,0.655-1.393c1.065,1.085,1.618,3.338,3.646,3.154c0.553,0.512,0.778,1.495,1.639,1.516
			c2.212-0.573,1.413,2.499,3.03,3.4c1.271,0.799,1.967,2.682,3.789,1.782l0.635-0.799c0.595,0.43,0.103,1.475,0.636,2.068
			c0.88,1.7,2.662,2.867,4.402,3.359c1.536,1.699,3.134,3.768,4.875,5.037l-1.229,0.554l-10.485,10.772
			C124.705,180.656,119.237,174.41,115.53,167.447 M189.484,217.255c-21.115-2.908-39.567-12.042-55.952-26.215l10.793-10.854
			l0.164-0.655c14.991,14.479,33.116,21.669,53.576,23.122l1.639-0.409l-0.533,0.799v14.213l0.799,1.249
			C196.734,217.542,192.884,217.828,189.484,217.255 M202.202,157.74c-1.167,0.185-2.109,0.103-3.031-0.348
			c-0.512-0.062-0.307-0.573-0.512-0.901c1.536,0.061,2.273-1.802,3.892-1.516c1.003-0.86,1.146-2.253,2.457-2.765
			c-0.41-1.331,1.27-0.45,1.618-1.249c0.471-0.389,1.105-0.881,1.741-0.512c1.044,1.557,3.235,0.901,4.26,2.642
			c0.553,0.185,0.717-0.369,0.654-0.737v-0.635c1.68-0.164,2.54,2.273,4.343,0.635c0.389-0.348,0.307-1.188,0-1.536
			c-0.205-0.103-0.492-0.225-0.533-0.491c1.188-0.533,1.946,1.863,3.38,1.023c1.249-1.023,2.048-2.273,3.707-2.273l0.348,0.471
			c0.267,3.174-2.416,5.059-4.792,6.451c-1.536,0.655-4.28,0.43-4.179,2.908c-1.699,1.597-3.358-0.942-5.57-0.287
			c-0.962-0.492-0.021-1.966-1.372-2.233C206.421,157.33,203.779,155.241,202.202,157.74 M206.053,184.385
			c1.925,0.799,5.182-0.799,6.226,1.372c-0.553,1.188-1.516,2.334-1.126,3.768c0.758,1.946,1.925,4.506,4.402,4.67
			c0.615,0.86,1.455,1.045,2.294,1.372c-4.157,0.676-8.745,0.492-12.595,1.782c0.532-4.239,0-8.663,0-12.964l-0.778-1.188
			C205.213,183.319,205.561,183.954,206.053,184.385 M206.277,217.972l-1.023,0.655c0.368-5.346,0.368-11.12,0-16.486
			c2.621,0.901,5.427-0.123,8.172-0.123l8.048-1.413c3.974,0.778,6.841,7.271,11.265,3.317c1.495-1.822,4.198-1.679,5.119-4.198
			c2.602-0.942,3.195-3.583,5.059-5.263c1.7-4.937,7.332-5.652,10.67-9.094c2.52-2.191,5.756-4.014,7.209-6.922l0.267,1.249
			l11.101,10.548C253.402,207.281,231.57,216.887,206.277,217.972 M302.698,121.715c-1.024,24.617-10.179,45.793-26.235,64.144
			l-0.43,0.777c-3.318-3.625-7.701-8.335-11.715-11.488c2.457-1.639,4.26-4.485,6.226-6.759
			c9.933-13.722,15.771-29.185,16.65-46.674l-0.532-1.393l0.901,0.614l14.95-0.062l0.778-0.389L302.698,121.715z"/>
		<path fill="#00AEEF" d="M249.225,39.263c-0.041,0.573,0.021,1.105,0.369,1.556c2.231,0.778,2.457,3.994,5.263,3.256
			c0.901-0.962-0.532-1.966-0.226-3.174c-0.369-1.085-1.352-1.536-2.396-1.864C251.149,40.061,250.248,38.075,249.225,39.263z"/>
		<path fill="#00AEEF" d="M207.261,30.354c2.724,3.543,7.618,1.577,11.06,0.901c2.519,1.044,4.936-0.226,6.86-1.802v-0.369
			c-1.802-2.499-5.161-2.888-8.212-3.154l-7.558,3.257c-0.655-0.246-1.884-0.574-2.273,0.266
			C206.789,29.719,207.138,30.087,207.261,30.354z"/>
		<g>
			<path d="M22.346,300.139v14.868c0,0.369,0.071,0.655,0.226,0.84c0.153,0.194,0.43,0.349,0.839,0.471v0.573h-6.717v-0.573
				c0.399-0.122,0.676-0.276,0.829-0.46c0.153-0.195,0.235-0.481,0.235-0.851v-20.705c0-0.358-0.082-0.635-0.235-0.819
				c-0.153-0.194-0.43-0.349-0.829-0.471v-0.574h7.782v0.574c-0.472,0.133-0.717,0.409-0.717,0.818c0,0.287,0.153,0.604,0.471,0.952
				l12.698,14.029v-14.51c0-0.358-0.082-0.635-0.236-0.819c-0.153-0.194-0.43-0.349-0.829-0.471v-0.574h6.718v0.574
				c-0.41,0.122-0.687,0.276-0.84,0.471c-0.153,0.185-0.226,0.461-0.226,0.819v20.705c0,0.369,0.072,0.655,0.226,0.851
				c0.153,0.184,0.43,0.338,0.84,0.46v0.573h-7.22v-0.573c0.472-0.103,0.696-0.368,0.696-0.768c0-0.235-0.276-0.655-0.819-1.26
				L22.346,300.139z"/>
			<path d="M64.811,310.665H54.346l-1.525,3.431c-0.216,0.48-0.317,0.86-0.317,1.126c0,0.533,0.368,0.892,1.115,1.096v0.573h-7.598
				v-0.573c0.461-0.092,0.799-0.266,1.034-0.501c0.235-0.236,0.502-0.707,0.819-1.393l8.438-18.801
				c0.276-0.595,0.41-1.075,0.41-1.424c0-0.553-0.328-0.952-0.983-1.188v-0.574h8.151v0.574c-0.655,0.204-0.983,0.553-0.983,1.055
				c0,0.348,0.103,0.747,0.317,1.188l8.766,18.842c0.369,0.799,0.696,1.352,0.973,1.639c0.276,0.297,0.655,0.491,1.116,0.583v0.573
				H65.62v-0.573c0.737-0.133,1.105-0.501,1.105-1.106c0-0.255-0.112-0.624-0.338-1.115L64.811,310.665z M63.367,307.307
				l-3.707-8.704l-3.789,8.704H63.367z"/>
			<path d="M97.426,308.484l3.194,5.15l-0.43,0.317c-0.317-0.308-0.573-0.46-0.768-0.46c-0.205,0-0.779,0.286-1.711,0.859
				c-1.935,1.168-3.553,1.966-4.874,2.376c-1.321,0.409-2.888,0.614-4.71,0.614c-3.625,0-6.595-0.911-8.92-2.744
				c-1.372-1.055-2.447-2.376-3.235-3.953c-0.911-1.802-1.362-3.799-1.362-5.97c0-2.959,0.81-5.529,2.438-7.722
				c2.447-3.286,6.144-4.925,11.101-4.925c1.812,0,3.379,0.205,4.68,0.614c1.3,0.41,2.929,1.208,4.884,2.406
				c0.932,0.563,1.506,0.851,1.711,0.851c0.194,0,0.45-0.154,0.768-0.472l0.43,0.328l-3.194,5.109l-0.461-0.328
				c0.021-0.184,0.03-0.348,0.03-0.48c0-0.338-0.133-0.666-0.42-0.973c-0.276-0.297-0.778-0.666-1.495-1.096
				c-1.976-1.188-4.085-1.782-6.308-1.782c-2.621,0-4.721,0.696-6.287,2.089c-1.833,1.629-2.755,3.759-2.755,6.391
				c0,2.631,0.922,4.761,2.755,6.389c1.566,1.394,3.666,2.09,6.287,2.09c2.223,0,4.332-0.594,6.308-1.793
				c0.717-0.43,1.219-0.798,1.495-1.105c0.287-0.297,0.42-0.625,0.42-0.973c0-0.133-0.01-0.287-0.03-0.471L97.426,308.484z"/>
			<path d="M106.048,315.007v-20.705c0-0.358-0.071-0.635-0.225-0.819c-0.154-0.194-0.44-0.349-0.84-0.471v-0.574h7.168v0.574
				c-0.399,0.102-0.676,0.256-0.829,0.46c-0.154,0.195-0.236,0.472-0.236,0.83v20.705c0,0.369,0.082,0.655,0.246,0.851
				c0.164,0.204,0.44,0.357,0.819,0.46v0.573h-7.168v-0.573c0.399-0.122,0.686-0.276,0.84-0.46
				C105.977,315.662,106.048,315.376,106.048,315.007z"/>
			<path d="M129.764,292.028c4.015,0,7.199,1.157,9.544,3.461c2.488,2.407,3.728,5.53,3.728,9.349c0,2.346-0.594,4.527-1.792,6.555
				c-2.324,3.963-6.134,5.949-11.448,5.949c-3.983,0-7.147-1.146-9.492-3.461c-1.26-1.229-2.223-2.703-2.867-4.424
				c-0.574-1.516-0.86-3.113-0.86-4.782c0-2.447,0.594-4.69,1.781-6.718C120.609,294.076,124.419,292.1,129.764,292.028z
				 M129.784,296.206c-2.19,0-4.023,0.687-5.488,2.069c-1.73,1.627-2.601,3.768-2.601,6.41c0,2.642,0.87,4.781,2.601,6.41
				c1.465,1.382,3.308,2.068,5.52,2.068s4.045-0.687,5.499-2.068c0.87-0.819,1.536-1.833,1.986-3.021
				c0.409-1.055,0.614-2.15,0.614-3.287c0-2.754-0.87-4.925-2.601-6.512C133.84,296.924,131.997,296.227,129.784,296.206z"/>
			<path d="M166.075,314.29c0.543,0.604,0.819,1.024,0.819,1.26c0,0.399-0.235,0.665-0.696,0.768v0.573h7.209v-0.573
				c-0.399-0.122-0.676-0.276-0.829-0.46c-0.154-0.195-0.235-0.481-0.235-0.851v-20.705c0-0.358,0.081-0.635,0.235-0.819
				c0.153-0.194,0.43-0.349,0.829-0.471v-0.574h-6.718v0.574c0.41,0.122,0.687,0.276,0.84,0.471
				c0.153,0.185,0.226,0.461,0.226,0.819v14.51l-12.698-14.029c-0.307-0.348-0.46-0.665-0.46-0.952c0-0.409,0.235-0.686,0.717-0.818
				v-0.574h-7.793v0.574c0.409,0.122,0.686,0.276,0.84,0.471c0.153,0.185,0.225,0.461,0.225,0.819v20.705
				c0,0.369-0.071,0.655-0.225,0.851c-0.154,0.184-0.431,0.338-0.84,0.46v0.573h6.718v-0.573c-0.399-0.122-0.676-0.276-0.83-0.471
				c-0.153-0.185-0.235-0.471-0.235-0.84v-14.868L166.075,314.29z"/>
			<path d="M193.867,306.159c0.338,0,0.594,0.082,0.768,0.257c0.185,0.174,0.328,0.471,0.451,0.891h0.532v-6.186h-0.532
				c-0.123,0.43-0.267,0.728-0.451,0.901c-0.174,0.164-0.43,0.246-0.768,0.246h-9.309v-5.816h14.347
				c0.338,0,0.594,0.082,0.768,0.256c0.185,0.175,0.328,0.461,0.451,0.892h0.532v-6.309h-0.532c-0.123,0.42-0.267,0.717-0.451,0.891
				c-0.174,0.174-0.43,0.256-0.768,0.256h-20.449v0.574c0.398,0.122,0.676,0.276,0.829,0.471c0.153,0.185,0.235,0.471,0.235,0.84
				v20.685c0,0.369-0.082,0.655-0.235,0.851c-0.153,0.184-0.431,0.338-0.829,0.46v0.573h20.879c0.328,0,0.584,0.082,0.769,0.246
				c0.174,0.175,0.317,0.472,0.43,0.901h0.532v-6.308h-0.532c-0.112,0.43-0.256,0.727-0.43,0.9c-0.175,0.164-0.44,0.246-0.769,0.246
				h-14.776v-6.718H193.867z"/>
			<path d="M226.86,294.548l-2.734,5.765l-0.491-0.287c0.01-0.123,0.021-0.215,0.021-0.286c0-0.41-0.317-0.851-0.963-1.311
				c-2.007-1.485-4.362-2.223-7.045-2.223c-1.198,0-2.243,0.153-3.154,0.461c-0.655,0.246-1.188,0.595-1.598,1.075
				c-0.409,0.471-0.614,0.993-0.614,1.557c0,0.911,0.512,1.536,1.557,1.874c0.553,0.164,1.71,0.338,3.472,0.532l2.651,0.287
				c1.567,0.174,2.837,0.42,3.81,0.727c0.973,0.317,1.833,0.748,2.581,1.312c0.768,0.583,1.372,1.351,1.812,2.304
				c0.44,0.963,0.665,1.977,0.665,3.062c0,1.721-0.522,3.246-1.556,4.587c-0.953,1.209-2.417,2.11-4.414,2.693
				c-1.484,0.441-3.072,0.666-4.762,0.666c-3.041,0-6.042-0.778-9.012-2.345c-0.624-0.308-1.003-0.462-1.137-0.462
				c-0.143,0-0.368,0.134-0.676,0.39l-0.48-0.266l2.488-6.011l0.48,0.256c0,0.102,0,0.184,0,0.225c0,0.543,0.246,1.034,0.718,1.496
				c0.727,0.686,1.863,1.289,3.389,1.781c1.526,0.512,2.98,0.758,4.353,0.758c1.495,0,2.765-0.267,3.819-0.799
				c0.584-0.297,1.045-0.687,1.394-1.178c0.348-0.492,0.521-1.004,0.521-1.536c0-0.809-0.409-1.382-1.219-1.72
				c-0.573-0.236-1.73-0.462-3.471-0.655l-2.591-0.287c-1.73-0.195-2.96-0.379-3.687-0.554c-0.717-0.174-1.434-0.45-2.15-0.829
				c-1.014-0.542-1.812-1.352-2.396-2.427c-0.532-0.973-0.789-2.078-0.789-3.338c0-2.068,0.656-3.789,1.987-5.141
				c1.751-1.782,4.372-2.673,7.864-2.673c1.465,0,2.836,0.164,4.106,0.481c1.28,0.317,2.867,0.9,4.761,1.762
				c0.646,0.276,1.045,0.42,1.199,0.42c0.225,0,0.501-0.144,0.829-0.42L226.86,294.548z"/>
			<path d="M264.113,294.322v13.711c0,2.602-0.45,4.537-1.342,5.827c-1.628,2.324-4.977,3.481-10.035,3.481
				c-3.655,0-6.461-0.625-8.406-1.885c-1.137-0.727-1.915-1.72-2.346-2.969c-0.43-1.25-0.645-2.734-0.645-4.455v-13.711
				c0-0.369-0.082-0.655-0.236-0.84c-0.153-0.194-0.43-0.349-0.829-0.471v-0.574h7.168v0.574c-0.399,0.102-0.676,0.256-0.829,0.46
				c-0.164,0.195-0.235,0.481-0.235,0.851v12.195c0,1.414,0.071,2.447,0.215,3.123s0.42,1.24,0.819,1.7
				c1.085,1.219,2.928,1.823,5.529,1.823c2.611,0,4.454-0.604,5.52-1.823c0.399-0.46,0.666-1.024,0.809-1.7
				c0.144-0.676,0.215-1.709,0.215-3.123v-12.195c0-0.369-0.081-0.655-0.235-0.84c-0.153-0.194-0.43-0.349-0.829-0.471v-0.574h6.758
				v0.574c-0.398,0.122-0.686,0.276-0.839,0.471C264.186,293.667,264.113,293.953,264.113,294.322z"/>
			<path d="M275.388,300.139v14.868c0,0.369,0.071,0.655,0.226,0.84c0.153,0.194,0.439,0.349,0.84,0.471v0.573h-6.718v-0.573
				c0.399-0.122,0.676-0.276,0.829-0.46c0.154-0.195,0.235-0.481,0.235-0.851v-20.705c0-0.358-0.081-0.635-0.235-0.819
				c-0.153-0.194-0.43-0.349-0.829-0.471v-0.574h7.782v0.574c-0.471,0.133-0.706,0.409-0.706,0.818c0,0.287,0.153,0.604,0.46,0.952
				l12.698,14.029v-14.51c0-0.358-0.082-0.635-0.235-0.819c-0.154-0.194-0.431-0.349-0.83-0.471v-0.574h6.718v0.574
				c-0.399,0.122-0.687,0.276-0.84,0.471c-0.153,0.185-0.225,0.461-0.225,0.819v20.705c0,0.369,0.071,0.655,0.225,0.851
				c0.153,0.184,0.44,0.338,0.84,0.46v0.573h-7.22v-0.573c0.472-0.103,0.697-0.368,0.697-0.768c0-0.235-0.267-0.655-0.82-1.26
				L275.388,300.139z"/>
			<path d="M301.726,315.007v-20.705c0-0.358-0.072-0.635-0.226-0.819c-0.154-0.194-0.43-0.349-0.84-0.471v-0.574h7.168v0.574
				c-0.389,0.102-0.666,0.256-0.83,0.46c-0.153,0.195-0.234,0.472-0.234,0.83v20.705c0,0.369,0.081,0.655,0.245,0.851
				c0.164,0.204,0.44,0.357,0.819,0.46v0.573h-7.168v-0.573c0.41-0.122,0.686-0.276,0.84-0.46
				C301.653,315.662,301.726,315.376,301.726,315.007z"/>
			<path d="M313.891,315.007v-20.685c0-0.369-0.072-0.655-0.226-0.84c-0.153-0.194-0.431-0.349-0.84-0.471v-0.574h12.82
				c2.806,0,4.967,0.338,6.472,1.024c2.161,0.993,3.759,2.621,4.793,4.905c0.818,1.792,1.229,3.891,1.229,6.287
				c0,4.219-1.219,7.435-3.656,9.636c-1.023,0.932-2.222,1.598-3.594,1.997c-1.362,0.399-3.113,0.604-5.243,0.604h-12.82v-0.573
				c0.409-0.122,0.687-0.276,0.84-0.46C313.818,315.662,313.891,315.376,313.891,315.007z M318.929,312.877h6.317
				c2.008,0,3.513-0.297,4.537-0.881c2.16-1.26,3.235-3.707,3.235-7.342c0-2.632-0.584-4.649-1.751-6.052
				c-0.646-0.778-1.434-1.331-2.355-1.659c-0.911-0.327-2.14-0.491-3.666-0.491h-6.317V312.877z"/>
			<path d="M357.871,310.665h-10.476l-1.516,3.431c-0.215,0.48-0.327,0.86-0.327,1.126c0,0.533,0.379,0.892,1.126,1.096v0.573
				h-7.598v-0.573c0.45-0.092,0.798-0.266,1.034-0.501c0.235-0.236,0.502-0.707,0.809-1.393l8.448-18.801
				c0.276-0.595,0.409-1.075,0.409-1.424c0-0.553-0.327-0.952-0.982-1.188v-0.574h8.15v0.574c-0.655,0.204-0.982,0.553-0.982,1.055
				c0,0.348,0.103,0.747,0.317,1.188l8.766,18.842c0.369,0.799,0.687,1.352,0.974,1.639c0.276,0.297,0.655,0.491,1.115,0.583v0.573
				h-8.459v-0.573c0.738-0.133,1.106-0.501,1.106-1.106c0-0.255-0.112-0.624-0.338-1.115L357.871,310.665z M356.428,307.307
				l-3.707-8.704l-3.789,8.704H356.428z"/>
			<path d="M391.306,294.548l-2.734,5.765l-0.491-0.287c0.021-0.123,0.021-0.215,0.021-0.286c0-0.41-0.317-0.851-0.963-1.311
				c-2.007-1.485-4.362-2.223-7.045-2.223c-1.198,0-2.242,0.153-3.154,0.461c-0.655,0.246-1.188,0.595-1.597,1.075
				c-0.41,0.471-0.615,0.993-0.615,1.557c0,0.911,0.522,1.536,1.557,1.874c0.553,0.164,1.71,0.338,3.472,0.532l2.652,0.287
				c1.566,0.174,2.837,0.42,3.81,0.727c0.973,0.317,1.832,0.748,2.59,1.312c0.758,0.583,1.362,1.351,1.803,2.304
				c0.44,0.963,0.666,1.977,0.666,3.062c0,1.721-0.522,3.246-1.557,4.587c-0.942,1.209-2.417,2.11-4.414,2.693
				c-1.475,0.441-3.062,0.666-4.762,0.666c-3.031,0-6.041-0.778-9.011-2.345c-0.625-0.308-1.004-0.462-1.127-0.462
				c-0.144,0-0.378,0.134-0.686,0.39l-0.481-0.266l2.488-6.011l0.481,0.256c0,0.102,0,0.184,0,0.225
				c0,0.543,0.245,1.034,0.717,1.496c0.727,0.686,1.863,1.289,3.39,1.781c1.525,0.512,2.979,0.758,4.352,0.758
				c1.495,0,2.765-0.267,3.819-0.799c0.584-0.297,1.045-0.687,1.394-1.178c0.348-0.492,0.521-1.004,0.521-1.536
				c0-0.809-0.409-1.382-1.219-1.72c-0.573-0.236-1.73-0.462-3.471-0.655l-2.591-0.287c-1.73-0.195-2.96-0.379-3.676-0.554
				c-0.728-0.174-1.444-0.45-2.161-0.829c-1.014-0.542-1.812-1.352-2.396-2.427c-0.522-0.973-0.788-2.078-0.788-3.338
				c0-2.068,0.655-3.789,1.986-5.141c1.751-1.782,4.372-2.673,7.864-2.673c1.465,0,2.837,0.164,4.117,0.481
				c1.27,0.317,2.856,0.9,4.751,1.762c0.646,0.276,1.044,0.42,1.198,0.42c0.235,0,0.502-0.144,0.829-0.42L391.306,294.548z"/>
		</g>
	</g>
</g>
</svg>
