<?xml version="1.0" encoding="utf-8"?>
<!-- Generator: Adobe Illustrator 16.0.0, SVG Export Plug-In . SVG Version: 6.00 Build 0)  -->
<!DOCTYPE svg PUBLIC "-//W3C//DTD SVG 1.1//EN" "http://www.w3.org/Graphics/SVG/1.1/DTD/svg11.dtd">
<svg version="1.1" xmlns="http://www.w3.org/2000/svg" xmlns:xlink="http://www.w3.org/1999/xlink" x="0px" y="0px"
	 width="245.787px" height="304.289px" viewBox="0 0 245.787 304.289" enable-background="new 0 0 245.787 304.289"
	 xml:space="preserve">
<g id="Fondo">
</g>
<g id="GuÌas">
</g>
<g id="Primer_plano">
	<g>
		<path fill="#3D86C7" d="M26.323,168.851c0,0.202-0.057,0.346-0.615,0.389v0.261h4.153v-0.261c-0.54-0.042-0.609-0.187-0.609-0.389
			v-6.869c5.768,6.447,6.318,6.735,6.318,7.023c0,0.144-0.11,0.234-0.509,0.234v0.261h4.158v-0.261
			c-0.552-0.042-0.615-0.187-0.615-0.389v-10.183c0-0.202,0.062-0.352,0.615-0.399v-0.261h-4v0.261
			c0.284,0.026,0.458,0.133,0.458,0.399v5.835c-1.528-1.689-5.311-5.712-5.311-5.952c0-0.128,0.112-0.256,0.614-0.282v-0.261h-5.271
			v0.261c0.558,0.048,0.615,0.197,0.615,0.399"/>
		<path fill="#3D86C7" d="M46.688,165.989l1.796-3.826l1.833,3.826 M55.037,169.501v-0.261c-0.172,0-0.369-0.059-0.432-0.213
			c-0.972-2.254-4.023-8.398-4.023-8.654c0-0.154,0.071-0.197,0.284-0.229v-0.256h-4.568v0.256c0.218,0.032,0.281,0.075,0.281,0.229
			c0,0.304-2.03,4.567-3.78,8.654c-0.067,0.154-0.263,0.213-0.435,0.213v0.261h3.28v-0.261c-0.096,0-0.29,0-0.29-0.187
			c0-0.245,0.507-1.103,0.641-1.497h5.066c0.156,0.394,0.638,1.252,0.638,1.497c0,0.187-0.201,0.187-0.287,0.187v0.261H55.037z"/>
		<path fill="#3D86C7" d="M68.376,160.299c-0.068,0.09-0.178,0.202-0.331,0.202c-0.246,0-0.832-0.202-1.575-0.373
			c-0.739-0.176-1.679-0.373-2.646-0.373c-3.186,0-6.379,1.359-6.379,4.94c0,3.586,3.193,4.939,6.379,4.939
			c2.774,0,4.684-1.311,4.903-1.311c0.122,0,0.237,0.106,0.346,0.24l0.259-0.149l-2.075-3l-0.241,0.154
			c0.025,0.133,0.025,0.245,0.025,0.395c0,0.309-1.466,1.359-3.216,1.359c-1.638,0-3.54-0.768-3.54-2.627
			c0-1.854,1.902-2.622,3.54-2.622c1.443,0,3.02,0.634,3.02,0.985c0,0.155-0.067,0.259-0.091,0.368l0.303,0.16l1.572-3.197"/>
		<path fill="#3D86C7" d="M71.998,159.888v0.256c0.437,0.032,0.704,0.09,0.704,0.405v8.302c0,0.304-0.268,0.368-0.704,0.389v0.261
			h4.328v-0.261c-0.438-0.021-0.7-0.085-0.7-0.389v-8.302c0-0.314,0.263-0.373,0.7-0.405v-0.256"/>
		<path fill="#3D86C7" d="M84.99,159.755c-2.733,0-5.831,1.487-5.831,4.94c0,3.453,3.098,4.939,5.831,4.939
			c2.736,0,5.838-1.487,5.838-4.939C90.829,161.242,87.727,159.755,84.99,159.755z M84.99,162.073c1.661,0,2.993,1.001,2.993,2.622
			c0,1.614-1.332,2.627-2.993,2.627c-1.656,0-2.991-1.013-2.991-2.627C81.999,163.075,83.334,162.073,84.99,162.073z"/>
		<path fill="#3D86C7" d="M104.876,160.549c0-0.314,0.264-0.373,0.604-0.405v-0.256h-3.84v0.256c0.346,0.032,0.614,0.09,0.614,0.405
			v4.3c-1.84-1.988-3.957-4.156-3.957-4.3c0-0.314,0.256-0.373,0.458-0.405v-0.256h-5.199v0.256c0.324,0.032,0.587,0.09,0.587,0.405
			v8.302c0,0.298-0.263,0.368-0.544,0.389v0.261h3.735v-0.261c-0.303-0.021-0.57-0.09-0.57-0.389v-5.729l0.05-0.048
			c2.466,2.888,5.263,5.376,5.263,5.883c0,0.261-0.415,0.282-0.634,0.282v0.261h4.037v-0.261c-0.341-0.021-0.604-0.09-0.604-0.389"
			/>
		<path fill="#3D86C7" d="M112.223,167.583v-2.169h4.108c0.168,0,0.388,0.091,0.388,0.506h0.268v-2.845h-0.268
			c0,0.416-0.219,0.512-0.388,0.512h-4.108v-1.774h6.379c0.173,0,0.393,0.085,0.393,0.522h0.263v-2.931h-0.263
			c0,0.395-0.219,0.485-0.393,0.485h-9.922v0.256c0.3,0.032,0.615,0.09,0.615,0.405v8.302c0,0.298-0.315,0.368-0.615,0.389v0.261
			h9.745c0.351,0,0.463,0.069,0.614,0.464h0.219v-2.931h-0.263c-0.089,0.394-0.303,0.549-0.57,0.549"/>
		<path fill="#3D86C7" d="M122.068,169.091l0.241,0.059c0.16-0.144,0.311-0.298,0.507-0.298c0.175,0,2.628,0.783,4.721,0.783
			c3.344,0,4.814-1.487,4.814-3.192c0-3.799-7.153-2.211-7.153-3.757c0-0.959,1.944-0.959,2.496-0.959
			c1.463,0,3.014,0.586,3.014,0.805c0,0.091-0.021,0.176-0.021,0.24l0.282,0.133l1.31-2.76l-0.245-0.08
			c-0.101,0.08-0.239,0.261-0.477,0.261c-0.483,0-2.271-0.57-4.346-0.57c-3.566,0-4.854,1.902-4.854,3.261
			c0,3.666,7.154,2.003,7.154,3.708c0,0.858-1.452,0.943-1.996,0.943c-1.774,0-4.284-0.575-4.284-1.14
			c0-0.112,0.017-0.17,0.017-0.235l-0.279-0.133"/>
		<path fill="#3D86C7" d="M152.395,164.524c0,1.678-1.007,2.355-2.749,2.355c-1.748,0-2.755-0.677-2.755-2.355v-5.856
			c0-0.202,0.059-0.352,0.612-0.399v-0.261h-4.502v0.261c0.543,0.048,0.607,0.197,0.607,0.399v5.856c0,3.847,2.686,5.11,6.038,5.11
			c3.341,0,6.031-1.263,6.031-5.11v-5.856c0-0.202,0.064-0.352,0.607-0.399v-0.261h-4.497v0.261
			c0.544,0.048,0.607,0.197,0.607,0.399"/>
		<path fill="#3D86C7" d="M171.343,160.549c0-0.314,0.261-0.373,0.613-0.405v-0.256h-3.848v0.256
			c0.352,0.032,0.614,0.09,0.614,0.405v4.3c-1.839-1.988-3.954-4.156-3.954-4.3c0-0.314,0.256-0.373,0.458-0.405v-0.256h-5.2v0.256
			c0.325,0.032,0.592,0.09,0.592,0.405v8.302c0,0.298-0.267,0.368-0.548,0.389v0.261h3.734v-0.261
			c-0.304-0.021-0.57-0.09-0.57-0.389v-5.729l0.048-0.048c2.473,2.888,5.265,5.376,5.265,5.883c0,0.261-0.41,0.282-0.635,0.282
			v0.261h4.045v-0.261c-0.352-0.021-0.613-0.09-0.613-0.389"/>
		<path fill="#3D86C7" d="M175.297,159.888v0.256c0.442,0.032,0.703,0.09,0.703,0.405v8.302c0,0.304-0.26,0.368-0.703,0.389v0.261
			h4.332v-0.261c-0.437-0.021-0.698-0.085-0.698-0.389v-8.302c0-0.314,0.262-0.373,0.698-0.405v-0.256"/>
		<path fill="#3D86C7" d="M183.529,168.851c0,0.298-0.255,0.368-0.564,0.389v0.261h6.554c3.24,0,4.546-2.232,4.546-4.806
			c0-2.579-1.306-4.807-4.546-4.807h-6.554v0.256c0.309,0.032,0.564,0.09,0.564,0.405 M186.455,161.982h1.571
			c2.238,0,3.197,0.746,3.197,2.712s-0.959,2.707-3.197,2.707h-1.571V161.982z"/>
		<path fill="#3D86C7" d="M200.725,165.989l1.796-3.826l1.833,3.826 M209.074,169.501v-0.261c-0.176,0-0.367-0.059-0.432-0.213
			c-0.964-2.254-4.033-8.398-4.033-8.654c0-0.154,0.074-0.197,0.293-0.229v-0.256h-4.566v0.256c0.213,0.032,0.277,0.075,0.277,0.229
			c0,0.304-2.025,4.567-3.778,8.654c-0.064,0.154-0.261,0.213-0.438,0.213v0.261h3.277v-0.261c-0.084,0-0.282,0-0.282-0.187
			c0-0.245,0.501-1.103,0.634-1.497h5.073c0.144,0.394,0.629,1.252,0.629,1.497c0,0.187-0.192,0.187-0.283,0.187v0.261H209.074z"/>
		<path fill="#3D86C7" d="M211.483,169.091l0.235,0.059c0.154-0.144,0.309-0.298,0.501-0.298c0.181,0,2.626,0.783,4.721,0.783
			c3.347,0,4.812-1.487,4.812-3.192c0-3.799-7.146-2.211-7.146-3.757c0-0.959,1.945-0.959,2.488-0.959
			c1.466,0,3.017,0.586,3.017,0.805c0,0.091-0.021,0.176-0.021,0.24l0.287,0.133l1.306-2.76l-0.234-0.08
			c-0.111,0.08-0.245,0.261-0.479,0.261c-0.485,0-2.276-0.57-4.348-0.57c-3.571,0-4.854,1.902-4.854,3.261
			c0,3.666,7.146,2.003,7.146,3.708c0,0.858-1.438,0.943-1.987,0.943c-1.774,0-4.284-0.575-4.284-1.14
			c0-0.112,0.021-0.17,0.021-0.235l-0.287-0.133"/>
		<rect x="7.148" y="210.552" fill="#4D4A6D" width="232.449" height="85.23"/>
		<rect x="7.148" y="210.552" fill="#3D86C7" width="232.449" height="85.23"/>
		<path fill="#FFFFFF" d="M27.916,269.779c0,3.825,3.063,6.959,6.792,6.959c3.728,0,6.792-3.134,6.792-6.959v-5.078h-4.526v7.018
			h-4.529v-35.478h4.529v7.018H41.5v-5.078c0-3.821-3.064-6.954-6.792-6.954c-3.729,0-6.792,3.133-6.792,6.954"/>
		<path fill="#FFFFFF" d="M86.344,231.6h-9.057c-2.504,0-4.527,2.068-4.527,4.642v35.478c0,2.573,2.023,4.646,4.527,4.646h9.057
			v-4.646h-9.057v-15.416h6.797v-4.641h-6.797v-15.421h9.057"/>
		<path fill="#FFFFFF" d="M117.608,276.365h4.525v-20.062h4.536c2.504,0,4.523-2.072,4.523-4.641v-15.421
			c0-2.574-2.02-4.642-4.523-4.642h-9.061 M122.133,236.241h4.536v15.421h-4.536V236.241z"/>
		<path fill="#FFFFFF" d="M162.455,276.365h4.523v-20.062h4.535v20.062h4.529v-38.185c0-3.821-3.064-6.954-6.794-6.954
			c-3.735,0-6.794,3.133-6.794,6.954 M166.979,236.241h4.535v15.421h-4.535V236.241z"/>
		<polyline fill="#FFFFFF" points="208.408,276.365 221.991,276.365 221.991,262.441 217.466,262.441 217.466,271.719 
			212.937,271.719 212.937,231.6 208.408,231.6 		"/>
		<path fill="#3D86C7" d="M69.482,64.225c0-29.834,24.121-54.015,53.892-54.015c29.761,0,53.888,24.181,53.888,54.015
			c0,29.84-24.126,54.021-53.888,54.021C93.604,118.246,69.482,94.065,69.482,64.225z M91.382,34.406l-6.066-5.883
			c-8.526,9.139-13.813,21.362-14.042,34.838h8.424C79.91,52.183,84.308,42.031,91.382,34.406z M98.645,41.461l-5.999-5.824
			c-6.744,7.297-10.948,17.014-11.164,27.725h8.346C90.04,54.921,93.35,47.253,98.645,41.461z M155.363,94.049l6.074,5.894
			c8.521-9.144,13.817-21.362,14.036-34.849h-8.425C166.835,76.278,162.439,86.435,155.363,94.049z M122.479,20.445v-8.488
			c-14.013,0.234-26.698,6.032-35.944,15.291l6.075,5.896C100.303,25.486,110.832,20.68,122.479,20.445z M122.479,30.564v-8.376
			c-11.134,0.229-21.229,4.833-28.614,12.181l6.009,5.824C105.738,34.422,113.693,30.788,122.479,30.564z M122.479,42.474V32.296
			c-8.277,0.224-15.796,3.661-21.343,9.127l7.281,7.066C112.111,44.936,117.047,42.698,122.479,42.474z M122.479,116.509v-8.499
			c-11.646-0.234-22.176-5.036-29.869-12.693l-6.075,5.888C95.78,110.471,108.466,116.269,122.479,116.509z M124.271,32.296v10.177
			c5.429,0.224,10.375,2.462,14.057,6.016l7.29-7.066C140.064,35.957,132.546,32.52,124.271,32.296z M87.53,89.274
			c-0.806-0.373-1.752-0.815-2.322-1.146c-0.897-0.52-0.279-1.093-0.993-1.615c-0.712-0.522-0.963-0.458-1.678-0.97
			c-0.721-0.528,0.57-0.458-0.846-1.007c-0.477-0.187-0.557,0.533-1.452,0.357c-0.894-0.171-0.851-1.822-1.412-1.822
			c-1.603,0-1.837-2.094-1.934-3.49c-0.176-2.462,1.753-2.057,1.753-2.057l1.316,0.554l0.682-1.103c0,0,0.248,0,0.948,0.101
			c-1.153-3.794-1.816-7.822-1.896-11.983h-8.424c0.229,13.486,5.516,25.705,14.042,34.849l6.066-5.894
			C89.993,92.552,88.703,90.958,87.53,89.274z M93.864,91.64c-0.125-0.048-0.248-0.075-0.354-0.101
			c-0.497-0.096-0.899,0.33-1.521,0.56l0.655,0.725L93.864,91.64z M105.451,92.701l-0.049,0.064
			c-0.532,0.869-0.783,0.65-2.572,0.826c-1.789,0.17-2.177,1.071-3.429,1.247c-1.239,0.176-1.064,0-2.14-1.039
			c-0.48-0.469-1.105-0.938-1.724-1.327l-1.673,1.614c7.385,7.354,17.48,11.958,28.614,12.187v-8.371
			C116.231,97.731,110.4,95.855,105.451,92.701z M84.551,77.435c1.241-0.171,1.694,0.09,2.851-0.133
			c1.179-0.208,0.476-2.952,0.476-4.05c0-1.092,1.13-2.131,1.917-3.229c0.145-0.203,0.287-0.378,0.431-0.517
			c-0.223-1.444-0.354-2.915-0.398-4.412h-8.346c0.088,4.321,0.827,8.478,2.111,12.383C83.839,77.504,84.131,77.488,84.551,77.435z
			 M140.603,48.732c0.395,0.637,1.87,2.938,2.958,3.78c1.263,0.975,2.957,1.7,3.862,2.265c0.906,0.57-1.172,0.698-0.389,1.354
			c0.778,0.666,2.436-1.162,2.851-1.162c0.427,0,1.375,0.218,1.375,1.449s-0.682,2.204-0.096,2.307
			c0.538,0.08,2.355-2.355,2.473-4.241c-0.32-1.018-0.693-2.003-1.108-2.968c-1.188-1.279-2.894-1.562-2.926-2.286
			c-0.059-1.231,0.634-1.22,1.082-1.327c-1.104-1.875-2.398-3.612-3.853-5.211L140.603,48.732z M115.516,55.374
			c0.469,0.016,1.017,0,1.822-0.085c1.886-0.229,1.567-3.331,2.897-2.936c0.805,0.234,1.562,0.144,2.243-0.021v-8.121
			c-4.922,0.218-9.418,2.265-12.799,5.499L115.516,55.374z M106.398,53.808c0.725-0.208,1.459-0.378,2.169-0.442
			c2.963-0.288,2.963,2.195,2.963,2.195s0.548-0.165,1.4-0.24l-4.47-4.332C107.696,51.863,107.006,52.806,106.398,53.808z
			 M97.526,63.362c0.311-0.624,0.563-1.37,0.613-2.244c0.102-1.737,0.491-4.23,3.243-4.417c2.494-0.171-0.224-1.098,1.078-1.514
			c0.38-0.117,0.884-0.317,1.455-0.527c0.867-1.785,1.978-3.437,3.282-4.908l-7.284-7.06c-4.972,5.462-8.085,12.687-8.304,20.669
			H97.526z M96.062,68.179c0.095,0.565,1.134,0.741,0.611,2.334l-0.025,0.064c0,0-1.077,0.565-1.077-0.091v-0.133
			c-0.047-0.65-0.388-1.492-0.292-2.643c0.083-1.093,0.713-1.913,1.189-2.616H91.61c0.043,1.311,0.151,2.595,0.335,3.847
			c0.062,0.011,0.135,0.027,0.201,0.043c0.851,0.181,1.918,1.588,2.674,1.588c0.447,0,0.575-0.133,0.75-0.219v0.133
			c0,0.656,1.077,0.091,1.077,0.091l0.025-0.064c0.534,0.298,1.083,0.895,1.289,1.646c0.279,1.044,1.258,4.146,1.536,4.599
			c0.281,0.458,0.661,1.859,0.661,2.957s0.882,1.226,0.978,2.046c0.099,0.826,0.38,2.312,0.38,2.312l-0.805,0.922l6.485-6.293
			c-2.59-2.92-4.412-6.543-5.133-10.566c-0.308-0.08-0.586-0.107-0.816-0.027c-1.107,0.373,0.339,2.521-0.765,2.275
			c-0.789-0.176-1.376-0.538-1.171-1.135c0.185-0.597,0.872,0.101,0.872-1.45c0-0.762-1.295-1.417-0.095-1.417
			c0.298,0,0.911,0.666,1.394,0.666c0.156,0,0.289-0.016,0.412-0.063c-0.079-0.581-0.128-1.167-0.16-1.77
			c-0.052-0.037-0.106-0.08-0.158-0.122h-1.477c-0.055,0.277-0.3,0.453-0.865,0.49c-1.957,0.074-1.321,1.135-1.421,1.705
			C97.72,67.854,95.96,67.608,96.062,68.179z M101.841,61.901c-0.873-0.378-2.528-0.319-2.528,0.544
			c0,0.269,0.101,0.591,0.231,0.917h2.191C101.758,62.866,101.796,62.381,101.841,61.901z M112.229,73.827
			c-2.196,0-0.033-3.102-0.609-3.25c-1.458-0.378-0.682,1.641-1.263,1.641c-0.583,0-1.299-0.698-1.299-1.076
			c0-0.378,0.286-1.322-0.49-1.322c-0.778,0-1.689-0.448-2.372-0.661c-0.625-0.203-1.375-0.298-2.196-0.458
			c0.754,3.325,2.314,6.319,4.461,8.776L112.229,73.827z M115.292,70.145c-0.166-0.139-0.367-0.229-0.619-0.229
			c-0.771,0-1.427,2.478-2.019,3.49l2.948-2.856C115.494,70.417,115.394,70.283,115.292,70.145z M112.145,65.094
			c-0.102,0.346-0.237,0.682-0.525,0.975c-0.44,0.458,0.913,0.597,1.884,0.405l0.134-0.021c-0.104-0.442-0.167-0.895-0.211-1.358
			H112.145z M122.479,53.957c-0.483-0.192-0.957-0.182-0.813,0.352c0.263-0.048,0.538-0.091,0.813-0.106V53.957z M125.233,72.505
			c0.38-0.448,0.732-0.831,0.787-1.364c0.19-2.078,2.333-0.565,3.148-1.322c0.814-0.756,1.422-2.84,0.714-3.346
			c-0.714-0.501,1.854-0.123,1.651-0.975c-0.186-0.847-2.167,0.187-2.365-0.565c-0.198-0.762-1.562-0.855-0.688-4.886
			c0.208-0.927-1.759-0.192-2.073-2.68c-0.066-0.506-1.991-0.208-2.537-0.666c-0.489-0.411-0.719-0.714-0.797-0.943
			c-0.328,0.011-0.641,0.037-0.966,0.085c0.166,0.81,0.166,1.588-0.311,1.902c-0.786,0.501-1.501,0.405-2.088,0.784
			c-0.587,0.383,0.196,0.853-0.485,1.327c-0.683,0.472-1.979,0.789-1.886,1.455c0.097,0.656,1.136,0.943,0.819,1.327
			c-0.327,0.368-1.11-0.57-1.405,0.091c-0.292,0.666,0,2.488-0.773,2.488c-0.725,0,0.005-1.247-1.002-1.63
			c-0.021,0.218-0.021,0.432-0.021,0.65c0,0.56,0.047,1.108,0.161,1.642c0.108-0.011,0.227-0.011,0.373,0.005
			c0.877,0.091-0.198,0.501,0.877,0.501c1.068,0,0.748-1.923,1.463-1.828c0.711,0.096,0.388,2.963-0.492,3.624
			c-0.878,0.666-0.784-0.57-1.072,0.101c-0.047,0.102-0.073,0.213-0.095,0.336c0.266,0.463,0.591,0.895,0.964,1.3
			c1.022,0,0.823-1.551,1.505-1.737c0.683-0.187-0.128-2.11,1.564-2.297c1.685-0.197,2.529-0.634,3.044,0.501
			c0.525,1.135-1.162,4.38-1.951,4.476c-1.762,0.218-2.756-0.187-2.756,0.192c0,0.032-0.011,0.069-0.023,0.106
			c1.374,0.98,3.059,1.567,4.881,1.567C124.031,72.724,124.645,72.644,125.233,72.505z M124.271,77.557
			c0.644-0.463,1.012-0.9,1.258-1.433c0.974-2.115-1.364-0.032-1.179-1.732l0.027-0.144l-0.106,0.016V77.557z M122.479,83.53
			c-0.35,0.053-0.663,0.037-0.882-0.123c-0.657-0.485-0.774-2.787,0.882-3.042v-6.102c-2.15-0.197-4.112-1.076-5.661-2.44
			l-7.138,6.927c3.381,3.234,7.877,5.275,12.799,5.504V83.53z M124.271,83.338c0.352-0.208,0.849-0.384,1.646-0.432
			c2.133-0.144,1.877,0.416,2.5,0.714c2.392-0.645,4.625-1.711,6.586-3.144c-0.415-0.629-1.06,0.725-1.971,0.533
			c-0.907-0.187-1.071-1.263,0-2.11c1.07-0.853,1.955-1.252,1.46-1.828c-0.485-0.57-1.978,0.122-2.462,0.975
			c-0.496,0.853-0.292,3.629-1.076,3.725c-0.784,0.09-1.562,0.005-2.856-0.384c-3.16-0.943-2.959,1.012-3.545,1.327l-0.281,0.155
			V83.338z M122.479,94.678c-0.729,0.059-1.321,0-2.573-0.357c-1.979-0.573-3.926-3.661-3.926-4.316
			c0-0.671,0.773-0.954,0.969-1.428c0.194-0.469,0.297-1.167,0.486-1.731c0.122-0.341,0.635-0.9,1.189-1.364
			c-3.896-0.879-7.408-2.813-10.208-5.51l-6.474,6.282c1.122,0.49,0.328,0.986,1.169,1.966c0.888,1.039,1.866,0.986,2.583,1.679
			c0.294,0.298,0.384,0.687,0.352,1.108c4.769,3.117,10.391,4.993,16.433,5.153V94.678z M128.854,95.701
			c-0.219-0.528-0.373-1.055-0.661-1.38c-0.564-0.639-2.16-0.053-3.922,0.166v1.673C125.825,96.116,127.355,95.962,128.854,95.701z
			 M138.85,106.357c-0.555,0-1.156-0.224-1.753-0.543c-0.661-0.357-1.316-0.821-1.887-1.188c-1.124-0.735-2.68-2.19-3.575-3.432
			c-0.885-1.231,0.9-2.605-1.444-3.98c-1.913,0.399-3.9,0.626-5.92,0.688v8.371c3.767-0.075,7.423-0.661,10.892-1.673
			c0.618,0.394,1.273,0.857,1.935,1.215c-4.045,1.343-8.35,2.104-12.826,2.195v8.499c14.008-0.24,26.696-6.038,35.941-15.304
			l-6.075-5.888c-2.765,2.755-5.893,5.131-9.313,7.077C142.702,104.21,139.648,106.357,138.85,106.357z M142.1,83.626
			c-3.224,0.384-5.079-2.024-5.627-1.662c-0.58,0.373-0.58,0.655-0.58,0.975c0,0.31,5.003,1.514,6.303,1.602
			c0.24,0.024,0.463-0.045,0.661-0.173L142.1,83.626z M148.606,65.094c0.074,0.208,0.154,0.426,0.181,0.698
			c0.096,0.847,3.154,3.65,3.154,4.694c0,1.034-1.705,0.885-2.861,1.034c-2.344,0.32-2.334,1.028-3.059,0.98
			c-0.649-0.048-0.292-0.97-0.484-0.794c-0.384,0.384-1.497,2.51-1.977,3.282c-0.523,0.842-1.812,1.535-2.729,2.126
			c-0.31,0.416-0.629,0.831-0.976,1.231c0.331,0.629,1.972-0.496,2.633-0.677c0.682-0.187,0.682-1.545,1.492-1.642
			c0.81-0.09,0.879,0.384,1.363,1.545c0.485,1.167-0.484,0.474-0.783,3.533c-0.048,0.565-0.048,1.311-0.634,1.844l0.149,0.139
			c0.389-0.463,0.842-0.869,1.46-0.943c1.566-0.181,0.879,0.762,1.108,1.924c0.117,0.602,0.415,0.863,0.692,1.13
			c4.678-5.398,7.588-12.395,7.79-20.104H148.606z M154.915,60.404c-0.245,0.176-0.549,0.277-0.896,0.117
			c-0.745-0.352,0.192-1.604,0.496-2.632c-0.091-0.496-0.208-0.991-0.336-1.481c-0.255,0.708-1.273,3.17-2.142,3.356
			c-0.911,0.187-0.976,0-1.854,0.848c-0.836,0.81-0.725,1.737-1.305,2.75h6.25C155.107,62.365,155.027,61.374,154.915,60.404z
			 M136.845,49.507c-0.052,0.005-0.117,0.011-0.175,0.011c-0.777,0-1.172,0.783-1.684,0c-0.239-0.368,0.234-0.688,0.831-0.9
			c-3.197-2.606-7.198-4.209-11.547-4.407v7.7c0.448-0.048,0.862,0.011,1.258,0.288c2.568,1.828,2.382-2.217,3.592-1.337
			c1.629,1.194-2.59,2.504-1.711,3.352c0.878,0.847,0.943-0.762,1.849-0.565c0.911,0.192,0.592,1.13,1.988,1.13
			c1.396,0,0.783-2.771,3.441-3.149c0.198-0.032,0.364-0.059,0.507-0.096l0.762-0.741c-0.037-0.378-0.219-0.762,0.97-0.938
			l0.145-0.144L136.845,49.507z M161.811,47.435c-0.427,0.213-0.933,0.357-1.487,0.282c-1.401-0.186-1.582-3.037-3.154-3.628
			c-5.621-2.11-4.124-2.995-4.71-3.65c-0.506-0.565-1.737-0.352-2.323-0.949l-1.199,1.156c0.191,0.208,0.405,0.395,0.666,0.543
			c1.945,1.172,0.778,2.427,1.562,3c0.777,0.565,0.517-0.378,1.199,0.277c0.682,0.666-0.197,1.358,0.58,2.302
			c0.783,0.948,1.37,1.487,1.562,2.371c0.095,0.416,0.112,1.668,0.154,2.888c0.31,0.796,0.592,1.62,0.836,2.446
			c0.298-0.485,0.65-1.204,1.189-1.204c0.511,0,0.026,2.195-0.475,4.007c0.416,1.977,0.65,4.007,0.714,6.085h8.34
			C165.146,57.703,163.931,52.326,161.811,47.435z M156.183,33.612c0.661,0.688,1.673,1.439,1.993,1.838
			c0.518,0.664,1.557,2.206,2.244,3.565c0.677,1.332,4.15,5.973,2.824,7.284c2.339,5.227,3.687,10.993,3.804,17.062h8.425
			c-0.219-13.476-5.515-25.7-14.036-34.838L156.183,33.612z M142.526,24.86c0.629-0.264,1.848,0.296,2.531-0.887
			c0.517-0.906,2.754,0.698,3.149,0.192c0.383-0.501-1.647-2.616,1.491-1.231c2.143,0.943,0,1.519,0.097,2.302
			c0.09,0.789,0.687-0.375,2.951,2.398c1.136,1.375-0.517,0.853,0.688,2.174c1.2,1.327,1.466,0.698,2.271,0.98
			c0.309,0.107,0.4,0.25,0.4,0.442l4.108-3.983c-9.246-9.258-21.933-15.056-35.941-15.291v8.488
			C130.808,20.579,136.995,22.151,142.526,24.86z M124.456,24.298c0.341-0.17,1.358,0.299,1.358,0.789
			c0,0.495-0.846,0.74-1.358,0.575c-0.079-0.021-0.142-0.069-0.186-0.133v5.035c7.599,0.197,14.59,2.941,20.132,7.417
			c-0.794-0.906-1.481-1.641-1.722-1.743c-0.688-0.282-1.172-1.065-0.485-1.54c0.677-0.479-0.298-1.519,0.096-2.206
			c1.172,0,0.81,1.7,1.593,2.584c0.773,0.879,1.066-0.224,1.748,0.57c0.688,0.783,0.133,2.803,1.401,3.368
			c0.251,0.117,0.469,0.24,0.655,0.389l1.812-1.758c-0.309-1.231-0.735-2.691-1.593-3.138c-1.262-0.661-1.087,1.273-1.887,0.756
			c-1.459-0.948-1.161-4.007-1.161-4.007s-2.147-0.352-1.3-3.341c0.159-0.56-1.338-0.56-1.637-1.406
			c-5.35-2.654-11.334-4.199-17.653-4.322V24.5C124.32,24.399,124.377,24.335,124.456,24.298z M152.353,93.585
			c-0.666,0.235-1.349,0.176-1.487-0.479c-0.053-0.271-0.122-0.671-0.181-1.146l-3.805-3.698c-0.272,0.267-0.539,0.517-0.82,0.778
			c-0.043,0.154-0.06,0.319-0.039,0.485c0.204,1.167,2.569,2.393,2.666,3.154c0.101,0.762-1.264,2.584-1.264,3.341
			c0,0.495,0.128,1.583-0.037,2.675c1.956-1.375,3.8-2.92,5.494-4.609L152.353,93.585z M151.852,87.116
			c1.875-0.17,2.051,4.167,1.875,5.206c-0.011,0.032-0.021,0.075-0.031,0.117l0.404,0.384c6.746-7.295,10.95-17.014,11.164-27.729
			h-8.34c-0.219,8.451-3.521,16.113-8.829,21.905l2.473,2.398C150.646,88.209,150.982,87.207,151.852,87.116z M76.389,81.351
			c0.682-0.181,0.523,1.343,1.223,2.18c0.716,0.836,0.882,2.243,0.669,2.494c-0.424,0.469-0.598-0.927-1.174-2.323
			C76.532,82.31,76.353,81.692,76.389,81.351z M152.458,68.179c1.662-0.187,1.396,0.98,0.287,0.98
			C151.644,69.159,150.802,68.365,152.458,68.179z M146.646,79.747c0.682-0.464,1.3,0.133,0.581,0.506
			C146.518,80.637,145.958,80.227,146.646,79.747z M99.891,71.333c0.682-0.474,1.95,1.178,0.95,1.652
			C99.829,73.465,99.209,71.812,99.891,71.333z M120.996,71.882c0-0.24,0.292-0.437,0.643-0.437s0.531,0.074,0.531,0.309
			c0,0.251-0.18,0.57-0.531,0.57S120.996,72.122,120.996,71.882z M124.65,67.8c0-0.208,0.371-0.282,0.583-0.282
			c0.216,0,0.391,0.17,0.391,0.383c0,0.208-0.175,0.378-0.391,0.378C125.021,68.28,124.65,68.008,124.65,67.8z M120.915,64.078
			c0.974,0.855,0.682,1.42-0.519,1.229C119.194,65.12,120.433,63.666,120.915,64.078z M128.708,66.996
			c0.219,0,0.176,0.821-0.042,0.821C128.458,67.816,128.496,66.996,128.708,66.996z M134.395,49.518
			c0.683,0.283,0.39,1.732-0.586,1.54C132.828,50.872,133.713,49.23,134.395,49.518z M132.828,51.34
			c0.496,0.384-0.404,2.025-0.996,1.737C131.246,52.79,132.349,50.968,132.828,51.34z M155.416,48.942
			c0.682-0.181,1.562,3.283,0.874,3.57C155.357,52.902,154.734,49.14,155.416,48.942z M152.603,42.543
			c0.202,0,0.82,0.991,0.612,0.991C152.277,43.534,152.006,42.543,152.603,42.543z M137.288,32.834c0,0,1.749,0.677,2.761,0.389
			c1.002-0.277,1.268-0.64,1.268-0.64s0.293,1.354-0.714,1.551C139.59,34.316,137.288,32.834,137.288,32.834z M133.819,24.356
			c0.603,0,1.023,1.077,0.091,1.077C132.973,25.433,133.228,24.356,133.819,24.356z M138.104,31.545
			c0.202,0,0.815,0.991,0.613,0.991C137.778,32.536,137.507,31.545,138.104,31.545z M133.463,15.479
			c0.25,0.33-0.176,0.82-1.412,0.954c-1.247,0.133-2.047,0.906-2.691,0.243c-0.651-0.658,1.497-0.621,2.099-1.196
			C132.051,14.893,132.524,14.648,133.463,15.479z M127.99,15.991c0.521,0,1.108,2.525,0.857,2.898
			c-0.256,0.378-0.857,0.08-1.87-0.08c-1.028-0.165-0.565-0.959-1.411-0.959c-0.858,0-1.363,0.581-1.279-0.075
			C124.372,17.104,127.475,15.991,127.99,15.991z"/>
		<path fill="#3D86C7" d="M123.242,130.912c0,0-7-2.558-13.88-2.696c-6.878-0.128-18.32,3.496-22.224,4.05
			c-4.717,0.677-12.135-0.943-12.135-0.943s4.045,6.197,18.326,6.341c11.324,0.096,19.673-6.208,26.954-6.075
			c-11.985,4.71-16.176,11.861-16.176,11.861l3.37,0.815c0,0,9.425-11.046,15.898-11.595c6.47,0.549,15.893,11.595,15.893,11.595
			l3.371-0.815c0,0-4.184-7.151-16.16-11.861c7.267-0.133,15.621,6.17,26.939,6.075c14.28-0.144,18.33-6.341,18.33-6.341
			s-7.423,1.62-12.128,0.943c-3.917-0.554-15.354-4.178-22.235-4.05C130.505,128.354,123.242,130.912,123.242,130.912z
			 M166.766,103.565c0,0-1.508,9.256-3.101,12.261c-3.911,7.412-8.486,9.698-8.486,9.698s8.448-3.581,11.977-4.444
			c10.523-2.558,16.315-6.331,16.315-6.331c-0.815,2.015-6.991,9.869-15.638,14.009c-6.47,3.102-14.824-1.476-20.074-1.476
			c1.624-1.487,2.83-1.354,7.823-10.247C160.744,107.844,166.766,103.565,166.766,103.565z M192.486,93.058
			c0,0-3.133,14.195-9.692,18.863c-7.947,5.659-17.792,7.806-17.792,7.806c2.019-6.586,2.43-13.737,3.644-16.566
			c2.351-5.446,7.408-14.419,7.408-14.419s1.354,9.57-1.207,16.039c-1.756,4.45-4.053,8.76-4.053,8.76s8.627-7.151,11.185-9.16
			C188.314,99.398,192.486,93.058,192.486,93.058z M197.347,72.841c0,0-1.312,12.335-6.472,18.86
			c-4.569,5.797-8.491,6.876-12.929,12.008c-0.134,0,0.804-4.988,0.666-8.089c-0.134-3.101-0.949-8.765-0.528-13.06
			c0.799-8.238,2.968-13.22,2.968-13.22s1.881,10.242,1.881,14.558s-1.496,11.989-1.496,11.989s4.729-8.488,7.288-11.185
			C191.282,82.012,197.347,72.841,197.347,72.841z M197.618,49.396c0.53,2.696,2.019,9.847-0.271,17.249
			c-2.281,7.407-5.79,8.627-11.18,18.741c0.275-3.783,0.358-5.371-1.353-9.171c-5.12-11.317-4.033-20.882-4.033-20.882
			s4.965,7.743,5.792,10.502c2.014,6.741,1.476,11.856,1.476,11.856s2.963-10.386,4.045-14.009
			C193.179,60.058,195.99,56.136,197.618,49.396z M188.176,30.271c0,0,0.885,9.191,0.549,12.399c-0.815,7.668-0.41,15.08-0.41,15.08
			s-2.675-7.269-4.844-10.103c-2.163-2.83-7.96-7.535-7.96-7.535s1.215,7.417,6.197,13.604c6.597,8.185,7.284,15.213,7.284,15.213
			s4.444-9.826,4.854-20.872C194.285,36.069,188.176,30.271,188.176,30.271z M178.083,19.625c3.085,7.545,3.354,14.829,4.849,21.011
			c-2.015-3.102-3.597-6.411-6.208-8.078c-5.248-3.373-8.358-7.545-8.358-7.545c-0.397,0.682-0.125,8.083,7.956,13.609
			c5.832,3.986,9.578,9.98,9.578,9.98c0-10.385,1.605-8.238,1.066-14.03C185.89,23.121,178.083,19.625,178.083,19.625z
			 M79.981,103.565c0,0,1.505,9.256,3.099,12.261c3.912,7.412,8.496,9.698,8.496,9.698s-8.452-3.581-11.985-4.444
			c-10.518-2.558-16.314-6.331-16.314-6.331c0.812,2.015,6.987,9.869,15.638,14.009c6.472,3.102,14.825-1.476,20.082-1.476
			c-1.627-1.487-2.839-1.354-7.832-10.247C86.002,107.844,79.981,103.565,79.981,103.565z M54.265,93.058
			c0,0,3.138,14.195,9.688,18.863c7.95,5.659,17.792,7.806,17.792,7.806c-2.022-6.586-2.428-13.737-3.639-16.566
			c-2.353-5.446-7.416-14.419-7.416-14.419s-1.347,9.57,1.213,16.039c1.752,4.45,4.046,8.76,4.046,8.76s-8.625-7.151-11.184-9.16
			C58.432,99.398,54.265,93.058,54.265,93.058z M49.4,72.841c0,0,1.313,12.335,6.469,18.86c4.575,5.797,8.484,6.876,12.926,12.008
			c0.138,0-0.794-4.988-0.66-8.089c0.135-3.101,0.944-8.765,0.527-13.06c-0.8-8.238-2.963-13.22-2.963-13.22
			s-1.881,10.242-1.881,14.558s1.488,11.989,1.488,11.989s-4.723-8.488-7.286-11.185C55.462,82.012,49.4,72.841,49.4,72.841z
			 M49.12,49.396c-0.518,2.696-2.012,9.847,0.28,17.249c2.287,7.407,5.798,8.627,11.184,18.741
			c-0.265-3.783-0.363-5.371,1.352-9.171c5.116-11.317,4.041-20.882,4.041-20.882s-4.976,7.743-5.803,10.502
			c-2.013,6.741-1.477,11.856-1.477,11.856s-2.962-10.386-4.051-14.009C53.566,60.058,50.754,56.136,49.12,49.396z M58.564,30.271
			c0,0-0.878,9.191-0.544,12.399c0.817,7.668,0.411,15.08,0.411,15.08s2.671-7.269,4.845-10.103c2.166-2.83,7.963-7.535,7.963-7.535
			s-1.226,7.417-6.203,13.604c-6.589,8.185-7.281,15.213-7.281,15.213s-4.439-9.826-4.85-20.872
			C52.458,36.069,58.564,30.271,58.564,30.271z M68.662,19.625c-3.081,7.545-3.355,14.829-4.844,21.011
			c2.012-3.102,3.592-6.411,6.195-8.078c5.252-3.373,8.363-7.545,8.363-7.545c0.404,0.682,0.134,8.083-7.955,13.609
			c-5.836,3.986-9.566,9.98-9.566,9.98c0-10.385-1.618-8.238-1.073-14.03C60.855,23.121,68.662,19.625,68.662,19.625z
			 M164.176,15.208c5.563,11.733,15.557,17.771,15.557,17.771C177.657,17.605,164.176,15.208,164.176,15.208z M82.145,15.208
			C76.59,26.941,66.588,32.979,66.588,32.979C68.67,17.605,82.145,15.208,82.145,15.208z"/>
	</g>
</g>
</svg>
